info face=font size=72 bold=0 italic=0 charset= unicode= stretchH=100 smooth=1 aa=1 padding=16,16,16,16 spacing=0,0 outline=0
common lineHeight=75 base=53 scaleW=209 scaleH=438 pages=1 packed=0
page id=0 file="font.png"
chars count=10
char id=49 x=16 y=16 width=36 height=53 xoffset=2 yoffset=1 xadvance=37 page=0 chnl=15
char id=50 x=16 y=85 width=49 height=54 xoffset=2 yoffset=1 xadvance=51 page=0 chnl=15
char id=51 x=16 y=155 width=34 height=56 xoffset=1 yoffset=0 xadvance=35 page=0 chnl=15
char id=52 x=68 y=16 width=54 height=53 xoffset=3 yoffset=1 xadvance=57 page=0 chnl=15
char id=53 x=16 y=227 width=37 height=53 xoffset=2 yoffset=1 xadvance=39 page=0 chnl=15
char id=54 x=66 y=155 width=46 height=55 xoffset=2 yoffset=1 xadvance=48 page=0 chnl=15
char id=55 x=81 y=85 width=45 height=53 xoffset=2 yoffset=1 xadvance=47 page=0 chnl=15
char id=56 x=16 y=296 width=44 height=55 xoffset=2 yoffset=0 xadvance=45 page=0 chnl=15
char id=57 x=16 y=367 width=47 height=55 xoffset=1 yoffset=1 xadvance=48 page=0 chnl=15
char id=48 x=138 y=16 width=55 height=53 xoffset=3 yoffset=1 xadvance=58 page=0 chnl=15
char id=32 x=0 y=0 width=0 height=0 xoffset=3 yoffset=1 xadvance=25 page=0 chnl=15
kernings count=0