{
    "TUTORIAL_PASO_1": "Hi there! I am going to show you how to play!",
    "TUTORIAL_PASO_2": "We have two Game Modes",
    "TUTORIAL_PASO_2_EXPLICARLOGIC": "This is the logic World!",
    "TUTORIAL_PASO_2_EXPLICARLOGIC2": "It's full of Mini-games",
    "TUTORIAL_PASO_3_ELIXIR_NECESARIO": "You will need elixir bottles to get access to some levels",
    "TUTORIAL_PASO_1_BRUJO": "They are earned at the Elixir Mode",
    "TUTORIAL_PASO_2_BRUJO": "Inside,(if you are intelligent) you will get hundreds of bottles",
    "TUTORIAL_PASO_3_BRUJO": "That's it!...no more boring questions\n¡Let's play'!",
    "SOLVE_BUTTON": "Solve",
    "GAMEMODE": "GAME MODE!",
    "COMPRADO": "✓",
    "EXPLICACION_CAFE": "Caffeine items are earned in the Series Mode or in the Shop",
    "EXPLICACION_ENERGY": "Energy drinks are earned in the Psico Mode or in the Shop",
    "RESTORE_ITEMS": "Restore In-Apps",
    "RESTORE_ITEMS_TITLE": "Restore",
    "RESTORE_ITEMS_SUBTITLE": "Restore previous In-App Purchases",
    "HELP_TWO_FROGS": "Jumping frogs\n\n On this level you should swap the brown frogs with the green ones (green ones to right stones, and brown ones to left stones).\n\n Tap  the frog you want to jump into the next stone.\n Pay attention, because it can only jump twice. \n Be aware that is not possible that 2 frogs share the same stone.\n Get Ready to this brain cracker!!\n\n\n\n",
    "HELP_FIVE_FROGS": "Jumping frogs\n\n On this level you should swap the brown frogs with the green ones.\n Tap  the frog you want to jump into the next stone.\n Pay attention, because it can only jump twice. \n Be aware that is not possible that 2 frogs share the same stone.\n Get Ready to this brain cracker!!\n\n\n\n\n",
    "HELP_ELEVATORS": "Elevators scene\n\n Please help these 5 characters to get out from the elevators.\nNotice that: elevator’s doors will only open when all the elevators are between floors 21st and 25th.\n There are two buttons that will be activated only when two elevators are selected. \nThe building has 49 floors.\n\n\n\n",
    "HELP_BALANZAS": "Fake coins \n\n One of the coins is Fake! Find it by weighting them on the scale. Is it heavier or lighter?\n\n You have three times to weight them before you figure it out\n ● Drag & Drop the coins into the yellow scales \n ● To weigh touch on the rounded weight button in the upper side of the totem (labeled 'CHECK') \n\n \n\n\n\n\n\n",
    "HELP_BOTELLAS": "Farmer Milk\n\n There is a 8 litres container filled with  milk. A farmer wants to equally divide it into 2 baskets, with 4 litres of milk per basket. \nDrag & pour the milk between the bottles.\n Last step is to move the bottles to the baskets and click check!\n\n\n\n",
    "HELP_BRIDGE": "Bridge\n\n Help the family to cross to the other side of the bridge.\n Notice that: \n● It is late night, so, you must have a torch. \n ● Each person cross the bridge at different speed:1 sec, 3 sec, 6 sec , 8 sec & 12 sec (we know the sum is more than 30!). \n● The bridge is wooden made so it can hold a maximum of 2 people.\n● A couple must walk together at  the slower person speed. \n● The torch fires only for 30 sec.\n Click on the people you want to cross (2 max) and then GO!\n\n\n\n",
    "HELP_CANIBAL": "Canibals\n\n Please help 3 cannibals and 3 missionaries to cross to the opposite side of the lake. \n\nNotice That: there is only one boat with two seats. Be aware that when one side of the river has more cannibals than missionaries, they will eat them. \n ● Touch the cannibals/explorers to take them to the boat \n● Touch the boat to move it.\n\n\n\n ",
    "HELP_GOAT": "Gazelle , Lettuce & Tiger\n\n The sailor Tom has to transfer a lettuce, a gazelle and a tiger from one side of the river to the other one. But there is only one seat available on his boat ! Furthermore, if the gazelle and lettuce stay together when Tom leaves the boat, the gazelle will eat the lettuce. And if the tiger and gazelle stay together, the tiger will eat the gazelle !\nClick on the items to take them into the boat, watch out they don’t eat each other. \nMove into the next level by taking all of them to the other shore of the river.\n\n\n",
    "HELP_DISKS": "Hannoi Towers\n\n Move the entire pile of discs to the right rod, following simple rules: Only one disc can be moved at a time. Each move consists of dragging the upper disk from one of the stacks and placing it on top of another stack \n● A disc can only be moved if it is the uppermost disc on a stack.\n● No disc could be placed on top of a smaller disk.\n● You have 44 moves!\n\n\n",
    "HELP_HARDBRIDGE": "Hard bridge\n\n A farmer, his son and daughter, and their pets need to cross the river. Pets are an aggressive dog, 2 hamsters and 2 rabbits. There is a small two-seat boat they can use. All 3 people know how to use the boat, but none of the animals can. Click the 'Navigate' button to use the boat.\n 1. If the farmer is not around, the aggressive dog will bite everyone and everything. \n 2. If the daughter is not around, the son will annoy the beaver. \n 3. If the son is not around, the daughter will tease the ducks.\n 4. The ducks and beaver get along fine with each other.\nClick on the characters to move them on/off the boat.\n\n\n\n\n\n",
    "HELP_SACKS": "Mystery Sacks\n\n Find out what is the content of each pair of sacks. Your first move will be to touch one sack to reveal its content  .\n\n Once you know the content of one sack, you should be able to match the banners with each pair of bags. Drag & Drop the banners to the wood stick placed in front of the bags. Notice that: None of the banners are placed at the right position! For example: if a banner shows [Tomato & Melon] it is saying us that the left sack below it, does not have Tomato and the right one does not have Melon\n\n\n\n\n\n\n\n ",
    "HELP_SANDCLOCK": "Boiling Eggs \n\n A farmer has some eggs that need to be cooked for exactly 15 minutes. There are two sandglasses(one for 7 min and the other for 11 min) that the farmer can use to time boiling. \n•Touch the sandglasses to turn them\n•Touch the boiler to start boiling the eggs\n•If the sand of one of the sand glasses finishes, the time is paused\n\n\n\n ",
    "HELP_VOLCAN": "Hawaii volcano\n\n There is an Asiatic volcano that has erupted leaving 3 female bears and their 3 cubs trapped within the lava. You have to take all the bears to the other side of the volcano. Luckily there is a big ballon where only 2 animal fit. The only rule is that a bear cub can’t stay without his mother, because it will be attacked by the others moms on the same side. Bear cub like each other.\n Go ahead!\n\n\n\n\n",
    "HELP_LIGHTSOUT": "Diamond Mine\n\n By clicking on a diamond, its colour and the neighbouring ones get changed. The goal is to turn pink all the diamonds.\nYou should get it with less than 15 clicks.\n\n\n\n ",
    "HELP_SERIES": "SERIES MODE\n\n\nGuess the number under the question mark. The numbers follow an algorithm you have to guess.\n\n Good Luck!",
    "HELP_FRUTAS": "Choose the correct Answer!",
    "Completed": " Completed!",
    "Pending": " Pending",
    "ELIXIR_REQUIRED": "Elixir Required- Get it on Elixir Mode! (click Play Button)",
    "BUY_ITEM": "Buy Elixir",
    "UNLOCK_ALL": "Unlock All",
    "LAYER_NECESITAS_ITEM_LEVEL": "Level ",
    "LEFT_BABY": "You left some cub with another mom",
    "VOLCAN_BALLOON_EMPTY": "Baloon is empty. Mount the bears!",
    "VOLCAN_TOUCH": "Touch to Fly!",
    "DISTRIBUTE_BOTELLAS": "You should distribute the bottles into the baskets before checking.",
    "CANIBAL_GAMEOVER_MORE_C_THAN_E": "Explorers are fewer than cannibals!",
    "CANIBALS_SUCCESS": "You saved the missionaries!",
    "CANIBALS_TOUCH_TO_MOVE": "Touch to move it",
    "CANIBALS_BOAT_EMPTY": "The boat is empty.Mount someone",
    "ELEVATORS_UNDER_0": "There are no floors under 0",
    "ELEVATORS_UP_49": "There are not floors up 49",
    "ELEVATORS_PICK_ANOTHER": "Pick another one to move!",
    "ELEVATORS_CLICK_LEFT": "Click up/down on the left panel!",
    "ELEVATORS_PICK_2_ELEVATORS": "Pick 2 elevators to move!",
    "ELEVATORS_WAIT": "Wait...",
    "GOAT_GAMEOVER_W_SHEEP": "The tiger ate the gazelle!",
    "GOAT_GAMEOVER_SH_LETTUCE": "The gazelle ate the lettuce!",
    "HANOI_GAMEOVER": "You don't have more moves!",
    "HARDBRIDGE_DONT_FOLLOW_HINT": "You didn't follow the hint. Please restart the hint",
    "HARDBRIDGE_BOAT_EMPTY": "Boat empty. Mount someone/something",
    "LIGHTSOUT_SUCESS": "Yes!!you got it!",
    "LIGHTSOUT_NO_MORE_MOVES": "You don't have more moves",
    "LIGHTSOUT_TOUCH_BLINKING": "Touch the blinking diamonds",
    "PSICOSCENE_GAMEOVER": "Sorry, you choose a incorrect answer",
    "PSICOSCENE_HELP": "PSICO\n\nClick Solve button and choose the right answer!\n\n\n\n",
    "PSICOSCENE_BUTTON": "Solve",
    "FrutasScene_GAMEOVER": "Oups! You failed to guess the number!",
    "SACKSSCENE_EXITO_MAS_VECES": "Sourprise!To pass the level..you should success %i more times",
    "SACKSCENE_HINT_0": "Remember the rule: no banner matches the content of the sacks below",
    "SACKSCENE_HINT_1": "Reveal one sack",
    "SACKSCENE_HINT_2": "For example, we suggest you the blinking one",
    "SACKSCENE_HINT_4": "Assign the only banner thats fits with its content (between 2nd and 3rd). Waht! It's blinking :)",
    "SACKSCENE_HINT_5": "Now you have to assign  the other two banners. Focus in assigning the banner to the sacks that aren't just below and you got it",
    "SANDCLOCK_GIRAR_RELOJES": "You have to turn (by touching) at least one clock. Neither of both sandglasses have sand in the upper part",
    "SANDCLOCK_GAMEOVER": "You have to boil the eggs exactly 15 minutes!",
    "SANDCLOCK_TUTORIAL0": "You have 2 sandglasses, you can turn unlimited times. You have to use them to calculate 15 minutes of boiling",
    "SANDCLOCK_TUTORIAL1": "The first sandglasses lasts 7 minutes.",
    "SANDCLOCK_TUTORIAL2": "The second one lasts 11 minutes.",
    "SANDCLOCK_TUTORIAL3": "Click the boiler  to start boiling. Once clicked, sandglasses also start to run",
    "SANDCLOCK_TUTORIAL4": "When a sandglass ends, the boiling is paused.Once paused, you can turn the sanglass / es to continue boiling ",
    "SANDCLOCK_HINT_0": "We start boiling with both sandlagsses filled",
    "SANDCLOCK_HINT_2": "We turn left sandglass and we start to boil again.\nWe still have 4 minutes left in the right sandglass.",
    "SANDCLOCK_HINT_5": "We have 7-4 :  3 minutes left in the left sandglass.\n We turn it, so we have 4 minutes left!",
    "SHOP_HINTS": "Hints",
    "SHOP_ELIXIR": "Elixir Bottles",
    "SHOP_RESTORE_ITEMS": "Restore items",
    "LAYER_SUCCESS_LEVEL_CLEARED": "Level Cleared",
    "LAYERGANARPISTA_DESEAS_GASTAR": "Do you want to use a hint on this level?",
    "HINT_BALANZAS": "Let us number the coins from 1 to 12. For the first weighing let us put on the left coins 1,2,3 and on the right coins 4,5,6. \n There are two possibilities.  Either they balance, or they don't.\n---------------------------\nSuppose after the first weighing that the set 1,2,3 balances with  4,5,6.\nNow weigh 7,8,9 against 1,2,3. If they balance, then in 7,8,9 is the unequal pill.\n\nIf instead the set 7,8,9 is *heavier* than 1,2,3, then any one of pills 7,8,9 could be heavier. Weigh pill 7 against pill 8, if they balance,then pill 9 is heavier. If they do not balance, then the pill that weighs more is the heavier pill.\n\n If the set 7,8,9 is *lighter* than 1,2,3, then any one of pills 7,8,9 could be lighter. Weigh pill 7 against pill 8, if they balance, then pill 9 is lighter. If they do not balance, then the pill that weighs less is the lighter pill.\n\n--------------------------\n\nSuppose after the first weighing that the set 1,2,3 don't balances with  4,5,6.\n Automatically 7,8,9 are normal coins.\nWeigh 1,2,3 Vs 7,8,9. If they balance in 4,5,6 group is the fake coin.\nNow take 1,2,3 Vs 4,5,6\nIf set 4,5,6 is *heavier* than 1,2,3, then any one of pills\n 4,5,6 could be heavier. Weigh pill 4 against pill 5, if they balance, then pill 6 is heavier. If they do not balance, then the pill that weighs more is the heavier pill.\n\n\nIf the set 4,5,6 is *lighter* than 1,2,3, then any one of pills 4,5,6 could be lighter. Weigh pill 4 against pill 5, if they balance, then pill 6 is lighter. If they do not balance, then the pill that weighs less is the lighter pill.\n\n\n\n\n\n\n\n\n\n\n\n\n\n\n\n\n\n\n\n\n\n\n\n\n\n\n\n\n\n\n\n\n\n\n",
    "UNLOCKED_ELIXIR": "You unlocked enough Elixir to play a new level in LOGIC MODE ",
    "LOGIC_MODE": "LOGIC MODE",
    "LEVEL_UNLOCKED": "Congratulations!!",
    "BALANZAS_HEAVIER_LIGHTER": "Yes! ..but Heavier or lighter?",
    "BALANZAS_HEAVIER": "Oups...It was heavier!",
    "BALANZAS_LIGHTER": "Sorry...It was lighter!",
    "BALANZAS_SELECT_DIFFERENT": "Select the coin which has different weight",
    "BALANZAS_WRONG": "You selected a wrong coin",
    "SACKS_NO_SEGUISTE_LA_PISTA": "You did not follow the hint!",
    "SACKS_TOUCH_ONE_SACK": "Touch one sack",
    "SACKS_ASIGNA": "Assign the flags by Drag & Drop",
    "SACKS_NO_OF_THESIGNALS": "Rule: 'No one of the signals corresponds to the sacks exactly below'",
    "SACKS_NOT_CORRECT_SIGNAL": "Oups! You didn't choose the correct signal",
    "SUCCESS_MESSAGE": "Congrats! You are more clever than I thought!",
    "CANIBAL_SUCCESS": "Yes! Easy? We'll see...",
    "BOTTLE_TEXTO_VERTER": "Release to Vert!",
    "HARDBRIDGE_MOVER": "Move",
    "BRIDGE_CHOOSE_CHARS": "Before  moving, you have to select the characters",
    "SHARE1": "Help me! Which is the solution?",
    "SHARE2": "Logic Safari=> Download on iOS & Android http://hyperurl.co/logicsafari ",
    "COMPRA_COMPLETE_GAME_TITLE": "Complete Game",
    "COMPRA_COMPLETE_GAME_DESC": "Unlimited acces to Hints and remove ads",
    "COMPRA_REMOVE_ADS_TITLE": "Remove Ads",
    "COMPRA_REMOVE_ADS_DESC": "Remove all the ads and enjoy a incredible experience",
    "COMPRA_1_PISTA_TITLE": "1 Hint",
    "COMPRA_1_PISTA_DESC": "Get the solution of any level",
    "COMPRA_3_PISTAS_TITLE": "3 Hints",
    "COMPRA_3_PISTAS_DESC": "Get 3 x solution for any level",
    "COMPRA_5_PISTAS_TITLE": "5 Hints",
    "COMPRA_5_PISTAS_DESC": "Get 5 x solution for any level",
    "COMPRA_10_PISTAS_TITLE": "10 Hint",
    "COMPRA_10_PISTAS_DESC": "Get 10 x solutions for any level",
    "COMPRA_20_ELIXIRES_TITLE": "20 Elixir Bottles Packs",
    "COMPRA_20_ELIXIRES_DESC": "The cheapest pack!",
    "COMPRA_60_ELIXIRES_TITLE": "60 Elixir Bottles sack",
    "COMPRA_60_ELIXIRES_DESC": "Save 40%, incredible discount!",
    "COMPRA_150_ELIXIRES_TITLE": "150 Elixir Bottles chest",
    "COMPRA_150_ELIXIRES_DESC": "Save 60% in this item!",
    "COMPRA_500_ELIXIRES_TITLE": "500 Elixir Bottles Treasure",
    "COMPRA_500_ELIXIRES_DESC": "Save 80%!Best price!",
    "LEVELS_V2_YOU_NEED": "You need",
    "LEVELS_V2_TO_UNLOCK": "To Unlock next level in",
    "NEED_TO_PASS_PREVIOUS": "Be calm! You need to pass previous level",
    "YOU_CAN_USE_HINT": "Hey! If you are stuck, you can use a hint( is the upper/right button with a bulb)",
    "LAYER_PUEDES_VOTAR_TEXTO": "You are starving for Elixir...wait, if you rate the app with 5 stars you will get all the elixir you need:",
    "NO_THANKS": "No\n Thanks",
    "OK_REDIRECT_ME_GOOGLE": "Yes, go to Google Play to Rate it",
    "OK_REDIRECT_ME_IOS": "Yes, go to AppStore to Rate it",
    "RATE_PREMIO_TITLE": "Get Free Elixir!",
    "RATE_PREMIO_CONTENT": "Now, you are going to be redirected to Logic Safari Entry in the AppStore. Please, rate it with 5 stars and come back to get your gift!",
    "RATE_PREMIO_IR": "Continue",
    "RATE_PREMIO_CONGRATS_TITLE": "Congratulations!",
    "RATE_PREMIO_CONGRATS_CONTENT": "You get successfully the 'Rating gift'. Many thanks!",
    "PARENTAL_CONTROL": "Parental control\n Please, touch simultaneously the 3 locks.",
    "GAMEOVER": "Game Over",
    "LOCAL_NOTIFICATION_REMMEBER": "The Safari is waiting for a brave explorer. Come to play!",
    "LOCAL_NOTIFICATION_GIFT": "You have got a new gift! 1 Free Hint!",
    "NOTIFICATION_GIFT_OWNED": "You have got a new Gift! 1 Hint!",
    "NOTIFICATION_GIFT_OWNED_TITLE": "Congratulations!",
    "POURS_TO": "pours to --->",
    "GAME_OVER_BRIDGE": "You don't have more time!",
    "GAME_OVER_BOTELLAS": "Ouch! Not same weight"
}
